<?xml version="1.0" encoding="utf-8"?>
<!-- Generator: Adobe Illustrator 18.0.0, SVG Export Plug-In . SVG Version: 6.00 Build 0)  -->
<!DOCTYPE svg PUBLIC "-//W3C//DTD SVG 1.1//EN" "http://www.w3.org/Graphics/SVG/1.1/DTD/svg11.dtd">
<svg version="1.1" id="Laag_1" xmlns="http://www.w3.org/2000/svg" xmlns:xlink="http://www.w3.org/1999/xlink" x="0px" y="0px"
	 viewBox="0 0 59.2 48.6" style="enable-background:new 0 0 59.2 48.6;" xml:space="preserve">
<g>
	<path d="M1.4,8.7C1.3,8.4,1.5,8.2,1.9,8.1c1.2-0.5,2.5-0.6,3.8-0.8C6.8,7.1,8,6.9,9.1,6.7c1.3-0.2,2.7-0.3,4-0.6
		c2.8-0.5,5.6-0.8,8.4-1.4C24.7,4.1,27.8,3.7,31,3c2.5-0.5,5-1,7.5-1.3c3.2-0.4,6.3-0.9,9.5-1.3c0.7-0.1,1.4-0.2,2-0.3
		c0.7-0.1,0.9,0,1.1,0.7c0.4,1.3,0.4,2.7,0.6,4.1c0.2,1.7,0.4,3.5,0.7,5.2c0.3,2.2,0.7,4.4,1,6.6c0.4,2.3,0.9,4.6,1.2,7
		c0.4,2.9,1.1,5.7,1.6,8.6c0.3,1.8,0.6,3.6,1.1,5.4c0,0.1,0.1,0.3,0.1,0.4c0.2,0.7-0.2,1.2-0.8,1.3c-1.2,0.1-2.4,0.3-3.6,0.5
		c-1.8,0.3-3.6,0.5-5.4,0.7c-1.4,0.2-2.7,0.5-4.1,0.7c-2,0.4-4,0.7-6,1.1c-0.6,0.1-1.3,0.2-1.9,0.3c-2.7,0.5-5.4,0.8-8,1.4
		c-3.1,0.6-6.2,1.1-9.2,1.8c-2.3,0.5-4.6,1.1-6.9,1.6c-0.5,0.1-1,0.3-1.5,0.4c-0.6,0.2-1.1-0.1-1.1-0.7c-0.1-1.5-0.6-2.9-0.8-4.4
		c-0.4-3.1-1.1-6.1-1.9-9.1c-0.8-3.6-2-7.1-2.9-10.6c-0.4-1.8-0.6-3.6-0.9-5.4C2,15,1.7,12.3,1.5,9.5C1.5,9.3,1.4,9,1.4,8.7z
		 M51.1,5.6C51.1,5.6,51.1,5.6,51.1,5.6c0-0.5-0.1-0.9-0.1-1.4c-0.1-1.1-0.2-2.1-0.4-3.2c-0.1-0.4-0.2-0.5-0.6-0.4
		C49.4,0.8,48.8,1,48.2,1c-1.5,0.2-3,0.4-4.5,0.6c-1.3,0.2-2.7,0.5-4,0.6c-1.3,0.1-2.5,0.3-3.8,0.6c-2.4,0.4-4.8,1-7.3,1.3
		c-2.1,0.3-4.3,0.8-6.4,1.2c-1.6,0.3-3.2,0.6-4.8,0.8c-0.9,0.2-1.9,0.1-2.8,0.4c-0.6,0.2-1.3,0.3-1.9,0.4C11.1,7.1,9.5,7.3,8,7.6
		C6.7,7.8,5.4,8,4.1,8.2C3.5,8.3,2.9,8.5,2.4,8.8C2.1,8.8,2.1,9,2.1,9.1c0,0.4,0,0.8,0.1,1.3c0.3,2.6,0.5,5.2,1,7.7
		c0.3,1.5,0.4,3,0.8,4.5c0.5,2.1,1.1,4.2,1.7,6.3c0.8,2.8,1.4,5.6,2.1,8.5c0.5,2.1,0.8,4.1,1.1,6.2c0.1,1.1,0.6,2,0.6,3.1
		c0,0.5,0.2,0.5,0.6,0.4c2.4-0.6,4.8-1.2,7.2-1.7c2.9-0.6,5.8-1.2,8.7-1.7c2.9-0.6,5.7-1,8.6-1.5c2.8-0.5,5.7-1,8.5-1.5
		c2.1-0.4,4.3-0.8,6.4-1c2.3-0.3,4.6-0.7,6.9-1c0.3,0,0.5-0.2,0.4-0.6c-0.4-1.8-0.7-3.6-1.1-5.3c-0.4-2-0.8-4.1-1.2-6.1
		c-0.4-2.2-0.7-4.4-1.1-6.6c-0.2-1.3-0.6-2.6-0.7-3.9c-0.3-1.9-0.6-3.8-0.9-5.6C51.6,8.9,51.3,7.3,51.1,5.6z"/>
	<path d="M14.2,16.1c-0.2-1,0-2.1-0.4-3.3c-0.2-0.6-0.1-0.8,0.6-1c3-0.6,6.1-1.3,9.1-1.9c3.6-0.7,7.3-1.4,10.9-2.1
		c1.4-0.3,2.9-0.3,4.3-0.6c2.2-0.4,4.5-0.5,6.7-0.9c0.7-0.1,1.3-0.1,2-0.2c0.6,0,0.8,0.3,0.9,0.8c0.5,2,0.7,4,1,6
		c0.4,2.7,0.8,5.4,1.3,8.2c0.6,3,1.2,6,1.6,9c0.3,1.7,0.7,3.3,0.8,5c0.1,1.1,0.1,1.1-1,1.4c-2.1,0.5-4.3,0.8-6.5,1.1
		c-2.1,0.3-4.2,0.6-6.2,0.7c-2.4,0.2-4.8,0.8-7.2,1.1c-2.6,0.4-5.1,1-7.7,1.2c-2.6,0.2-5.1,0.7-7.7,1.1c-1.2,0.2-2.3,0.5-3.5,0.8
		c-0.7,0.2-0.7,0.1-1-0.6c-0.8-2-1.1-4.1-1.4-6.2c-0.5-3.4-1.2-6.9-1.7-10.3c-0.1-0.9-0.2-1.9-0.5-2.9c-0.3-0.9-0.4-1.9-0.6-2.9
		c0-0.1,0-0.2-0.1-0.3c-0.3-0.7-0.2-0.7,0.5-0.9c1.6-0.4,3.2-0.6,4.7-0.9C14.2,17.6,14.3,17.4,14.2,16.1z M15.2,18.4
		c0,0.2,0,0.3,0,0.4c0.2,1.4,0.5,2.8,0.7,4.2c0.1,0.3,0.2,0.3,0.5,0.3c1.1-0.2,2.3-0.4,3.4-0.6c1-0.2,2-0.3,3-0.4
		c0.4,0,0.5-0.2,0.4-0.6c-0.2-1.4-0.5-2.7-0.7-4.1c-0.1-0.7-0.1-0.7-0.9-0.6c-1.3,0.2-2.6,0.4-4,0.6c-0.7,0.1-1.4,0.2-2.1,0.4
		C15.3,18,15.2,18.2,15.2,18.4z M24.6,34.7c-0.1,0-0.2,0-0.3,0c-2,0-4,0.5-6,0.8c-0.5,0.1-0.6,0.3-0.5,0.8c0.2,1.4,0.4,2.8,0.5,4.1
		c0,0.3,0.2,0.4,0.4,0.4c0.5-0.1,0.9-0.1,1.4-0.2c1.3-0.1,2.6-0.6,4-0.5c0.5,0,1-0.1,1.5-0.2c0.2,0,0.4-0.1,0.3-0.4
		c-0.3-0.6-0.2-1.3-0.4-1.9c-0.2-0.8-0.3-1.7-0.4-2.5C24.9,34.9,24.9,34.6,24.6,34.7z M25.9,33.8c0.1,0,0.2,0,0.2,0
		c2-0.2,4-0.7,6.1-0.9c0.4,0,0.3-0.3,0.3-0.5c-0.2-1.4-0.4-2.7-0.6-4.1c-0.2-1.1-0.1-1.1-1.2-0.9c-0.1,0-0.1,0-0.2,0
		c-1.7,0.3-3.4,0.6-5.1,0.9c-0.3,0.1-0.5,0.2-0.4,0.5c0.2,1.6,0.4,3.1,0.6,4.7C25.6,33.7,25.6,33.9,25.9,33.8z M17,29.8
		c0.2,1.6,0.3,3.1,0.5,4.6c0.1,0.4,0.2,0.4,0.5,0.4c2.1-0.3,4.1-0.7,6.2-0.8c0.4,0,0.5-0.2,0.5-0.6c-0.2-1.4-0.4-2.9-0.6-4.4
		c0-0.3-0.2-0.5-0.5-0.4c-2.1,0.3-4.1,0.4-6.2,0.8C17.1,29.5,16.9,29.6,17,29.8z M24.5,15.9c1.7-0.1,3.4-0.5,5.1-0.7
		c0.2,0,0.3-0.2,0.3-0.4c-0.2-1.6-0.5-3.2-0.8-4.7c-0.1-0.3-0.2-0.4-0.5-0.3c-0.5,0.1-1.1,0.2-1.7,0.4c-1.5,0.3-2.9,0.6-4.4,0.8
		c-0.2,0-0.5,0.1-0.4,0.5c0.3,1.4,0.6,2.9,0.9,4.3c0.1,0.3,0.2,0.4,0.5,0.4C23.8,16,24.1,16,24.5,15.9z M39.7,31.2
		c-0.1-1.4-0.4-2.8-0.6-4.2c-0.2-1-0.2-1-1.3-0.8c-0.1,0-0.2,0-0.3,0c-1.6,0.2-3.2,0.5-4.8,0.7c-0.2,0-0.4,0-0.4,0.3
		c0.3,1.7,0.4,3.3,0.7,5c0.1,0.4,0.3,0.5,0.7,0.4c0.8-0.2,1.5-0.3,2.3-0.5c1.1-0.2,2.2-0.4,3.3-0.6C39.6,31.7,39.8,31.5,39.7,31.2z
		 M16.2,24.3c0,0.1,0,0.2,0,0.2c0.2,1.3,0.4,2.6,0.6,3.9c0,0.3,0.2,0.3,0.4,0.3c0.5-0.1,1-0.2,1.5-0.3c1.6-0.1,3.2-0.3,4.7-0.6
		c0.3-0.1,0.4-0.2,0.4-0.5c-0.2-1.4-0.3-2.8-0.5-4.1c0-0.3-0.2-0.4-0.5-0.4c-0.4,0.1-0.8,0.1-1.1,0.2c-1.7,0.2-3.5,0.5-5.2,0.8
		C16.3,24,16.1,24,16.2,24.3z M24.4,22c0.1,0,0.1,0,0.2,0c2-0.2,3.9-0.7,5.8-1c0.3-0.1,0.4-0.2,0.4-0.6c-0.2-1.3-0.4-2.6-0.6-3.9
		c-0.1-0.8-0.1-0.8-0.9-0.6c-1.9,0.3-3.7,0.7-5.6,0.8c-0.3,0-0.4,0.1-0.3,0.4c0.3,1.5,0.5,3.1,0.8,4.6C24.1,21.9,24.1,22.1,24.4,22z
		 M32.9,35.7c-0.1-0.5-0.1-1.1-0.2-1.6c0-0.4-0.2-0.5-0.6-0.5c-2,0.1-4,0.6-6,0.9c-0.3,0-0.4,0.2-0.4,0.5c0.1,1.5,0.6,2.9,0.7,4.4
		c0,0.3,0.2,0.3,0.4,0.3c1.9-0.3,3.9-0.7,5.8-1c0.3,0,0.4-0.2,0.4-0.5C33.1,37.4,32.7,36.6,32.9,35.7z M31.6,26.1
		c-0.2-1.4-0.4-2.7-0.6-4c-0.1-0.4-0.3-0.5-0.6-0.4c-1.9,0.4-3.9,0.6-5.8,1c-0.3,0.1-0.4,0.2-0.3,0.5c0.2,1.4,0.4,2.8,0.5,4.1
		c0,0.4,0.2,0.4,0.6,0.4c1.9-0.3,3.9-0.6,5.8-1C31.4,26.5,31.7,26.4,31.6,26.1z M36.5,12.8c0-1.3-0.6-2.6-0.6-4
		c0-0.4-0.1-0.5-0.5-0.4c-1.8,0.3-3.5,0.6-5.2,1c-0.4,0.1-0.5,0.2-0.4,0.6c0.3,1.6,0.5,3.1,0.8,4.7C30.6,15,30.7,15,31,15
		c1.5-0.3,3-0.6,4.5-1c0.3-0.1,0.8,0.1,0.9-0.2C36.7,13.5,36.5,13.1,36.5,12.8z M40.6,37.2c-0.2-1.5-0.6-2.9-0.7-4.4
		c0-0.4-0.2-0.5-0.5-0.4c-1.9,0.3-3.7,0.6-5.5,0.9c-0.5,0.1-0.6,0.3-0.5,0.7c0.4,1.2,0.1,2.5,0.5,3.7c0.2,0.7,0.1,0.7,0.8,0.6
		c1.8-0.3,3.7-0.6,5.5-0.7C40.6,37.6,40.8,37.5,40.6,37.2z M15.1,16.3c0,0.2,0,0.4,0,0.6c0,0.3,0.1,0.4,0.4,0.4
		c2.1-0.4,4.2-0.7,6.3-1c0.3,0,0.4-0.2,0.4-0.5c-0.2-1.4-0.6-2.8-0.8-4.2c0-0.3-0.2-0.4-0.5-0.3C19,11.7,17,12,15.1,12.5
		c-0.4,0.1-0.5,0.3-0.4,0.6C14.9,14.2,15.1,15.2,15.1,16.3z M31.6,21.8c0.3,1.4,0.4,2.9,0.6,4.3c0,0.2,0.2,0.2,0.4,0.2
		c1.9-0.3,3.8-0.6,5.6-0.8c0.3,0,0.4-0.1,0.4-0.5c-0.3-1.4-0.6-2.9-0.9-4.3c-0.1-0.3-0.2-0.4-0.5-0.3c-0.6,0.1-1.2,0.2-1.9,0.3
		c-1.1,0.2-2.1,0.4-3.2,0.6C31.9,21.4,31.6,21.4,31.6,21.8z M30.8,16.2c0,1.4,0.5,2.8,0.7,4.3c0.1,0.4,0.3,0.3,0.5,0.2
		c1.7-0.3,3.3-0.6,5-0.9c0.4-0.1,0.5-0.2,0.4-0.6c-0.3-1.4-0.5-2.7-0.7-4.1c-0.1-0.4-0.3-0.5-0.7-0.5c-1.6,0.3-3.3,0.7-4.9,1
		C30.8,15.7,30.7,15.8,30.8,16.2z M37.4,14.7c0.2,1.2,0.4,2.4,0.6,3.6c0.2,1.1,0.2,1.1,1.4,1c1.4-0.2,2.8-0.4,4.2-0.6
		c0.5-0.1,0.6-0.2,0.5-0.7c-0.3-1.4-0.5-2.8-0.7-4.2c0-0.3-0.1-0.5-0.5-0.4c-1.7,0.3-3.4,0.5-5.1,0.8C37.5,14.3,37.3,14.5,37.4,14.7
		z M36.6,9c0,0.1,0,0.1,0,0.2c0.2,1.3,0.4,2.6,0.6,3.9c0.1,0.5,0.2,0.6,0.6,0.5c1.6-0.3,3.2-0.5,4.8-0.8c0.4-0.1,0.4-0.2,0.4-0.6
		c-0.2-1.5-0.6-2.9-0.8-4.4c0-0.3-0.2-0.3-0.4-0.3c-1.5,0.1-2.9,0.5-4.4,0.6C36.6,8.2,36.6,8.3,36.6,9z M42.1,25
		C42.1,25,42.1,25,42.1,25c0.9-0.1,1.7-0.2,2.6-0.3c0.2,0,0.2-0.2,0.2-0.3c-0.2-1.5-0.4-3.1-0.7-4.6c-0.1-0.3-0.2-0.4-0.5-0.3
		c-0.5,0.1-1,0.1-1.6,0.2c-1,0.1-2.1,0.3-3.1,0.4c-0.5,0.1-0.6,0.3-0.5,0.8c0.3,1.4,0.6,2.8,0.9,4.1c0.1,0.4,0.2,0.4,0.6,0.4
		C40.7,25.2,41.4,25.1,42.1,25z M13.4,23.9c0.4-0.1,0.7-0.1,1.1-0.2c0.7-0.1,0.7-0.1,0.6-0.8c-0.2-1.4-0.5-2.9-0.7-4.3
		c0-0.3-0.1-0.4-0.5-0.3c-0.6,0.2-1.3,0.3-2,0.4c-0.9,0.2-1.8,0.3-2.7,0.5c-0.4,0.1-0.5,0.3-0.4,0.6C9,20.3,9,20.7,9.1,21.2
		c0.2,1,0.3,1.9,0.7,2.9c0.1,0.2,0.1,0.4,0.4,0.4c0.6-0.1,1.2-0.1,1.7-0.3C12.4,23.9,12.9,23.9,13.4,23.9z M44.4,25.4
		c-1.5,0.2-3,0.4-4.4,0.6c-0.3,0-0.4,0.1-0.3,0.4c0.1,0.4,0.2,0.8,0.2,1.2c0.2,1.2,0.5,2.3,0.6,3.5c0,0.2,0,0.4,0.3,0.4
		c1.5-0.2,3.1-0.5,4.6-0.7c0.3,0,0.3-0.2,0.3-0.5c-0.3-1.4-0.4-2.9-0.5-4.3C45,25.5,45,25.3,44.4,25.4z M40.7,32.7
		c0.1,1.5,0.5,3,0.7,4.5c0,0.3,0.2,0.2,0.4,0.2c1.5-0.1,3.1-0.4,4.6-0.6c0.3,0,0.3-0.2,0.3-0.4c-0.3-1.5-0.6-3-0.8-4.5
		c-0.1-0.4-0.3-0.5-0.7-0.5c-1.3,0.3-2.7,0.4-4.1,0.6C40.8,32.2,40.6,32.3,40.7,32.7z M15.9,29.7c-0.1,0-0.1,0-0.2,0
		c-1.5,0.3-3,0.8-4.5,1c-0.3,0-0.4,0.2-0.3,0.5c0.3,1.3,0.3,2.7,0.6,4.1c0.1,0.4,0.1,0.9,0.7,0.5c0.1-0.1,0.3,0,0.4-0.1
		c1.3-0.1,2.5-0.3,3.8-0.6c0.3-0.1,0.4-0.2,0.3-0.5c-0.1-0.4-0.1-0.9-0.2-1.3c-0.1-1.1-0.2-2.2-0.3-3.3
		C16.2,29.7,16.1,29.7,15.9,29.7z M45.8,26c0.2,1.4,0.4,2.8,0.6,4.2c0,0.3,0.1,0.4,0.5,0.4c0.7-0.1,1.4-0.2,2.1-0.3
		c0.7-0.1,1.4-0.2,2-0.3c0.2,0,0.5,0,0.4-0.4c-0.3-1.5-0.5-3.1-0.8-4.6c-0.1-0.4-0.3-0.4-0.6-0.4c-1.2,0.1-2.4,0.3-3.6,0.5
		C45.9,25.2,45.7,25.4,45.8,26z M47.9,36.7c1.2-0.2,2.4-0.4,3.6-0.6c0.5-0.1,0.9-0.2,0.9-1c-0.1-1.4-0.5-2.8-0.7-4.2
		c0-0.2-0.1-0.2-0.3-0.2c-1.5,0.2-3,0.4-4.5,0.6c-0.3,0-0.3,0.2-0.3,0.5c0.3,1.5,0.6,3,0.8,4.5C47.5,36.5,47.6,36.7,47.9,36.7z
		 M11.1,29.9c1.7-0.1,3.2-0.7,4.7-0.9c0.3,0,0.2-0.3,0.2-0.5c-0.2-1.2-0.4-2.4-0.6-3.6c-0.1-0.4-0.2-0.4-0.5-0.4
		c-1.5,0.1-3,0.5-4.5,0.7c-0.4,0.1-0.5,0.2-0.5,0.6c0.2,1.3,0.3,2.5,0.6,3.8C10.6,29.8,10.8,30,11.1,29.9z M11.8,36.5
		c0,0.1,0,0.2,0,0.3c0.1,1.3,0.6,2.4,0.7,3.7c0.1,0.6,0.7,0.7,0.7,1.3c0,0,0.2,0.1,0.2,0c1.2-0.3,2.4-0.5,3.6-0.8
		c0.3-0.1,0.4-0.2,0.3-0.5c-0.2-1.5-0.4-3-0.6-4.5c0-0.2-0.1-0.3-0.3-0.3c-0.6,0.1-1.2,0.3-1.9,0.3C13.7,36.3,12.8,36.4,11.8,36.5z
		 M43.9,13.7c0.1,1.5,0.5,2.8,0.7,4.2c0.1,0.5,0.3,0.6,0.8,0.6c1-0.2,2.1-0.3,3.1-0.5c0.3-0.1,0.7,0.2,0.8-0.1
		c0.1-0.2,0-0.6-0.1-0.9c-0.2-1.4-0.4-2.7-0.6-4.1c0-0.2-0.1-0.4-0.4-0.3c-1.3,0.2-2.6,0.4-3.9,0.6C44,13.2,43.8,13.4,43.9,13.7z
		 M44.9,19.6c0.1,0.5,0.2,1.1,0.3,1.7c0.1,0.9,0.2,1.9,0.4,2.8c0,0.3,0.2,0.5,0.6,0.4c0.5-0.1,1-0.2,1.5-0.3
		c0.8-0.1,1.5-0.2,2.3-0.2c0.2,0,0.5,0,0.4-0.4c-0.3-1.6-0.5-3.2-0.8-4.8c0-0.2-0.1-0.3-0.4-0.3c-1.3,0.2-2.6,0.4-4,0.6
		C45,19.2,44.9,19.3,44.9,19.6z M44.1,12.5c1.3-0.1,2.7-0.5,4.1-0.5c0.3,0,0.3-0.2,0.3-0.4c-0.2-1.5-0.4-3-0.8-4.5
		c-0.1-0.3-0.2-0.3-0.4-0.3c-1.3,0.2-2.7,0.4-4,0.6c-0.4,0-0.5,0.2-0.4,0.5c0.2,1.4,0.6,2.9,0.8,4.3C43.7,12.5,43.8,12.6,44.1,12.5z
		"/>
</g>
</svg>
