<?xml version="1.0" encoding="utf-8"?>
<!-- Generator: Adobe Illustrator 18.0.0, SVG Export Plug-In . SVG Version: 6.00 Build 0)  -->
<!DOCTYPE svg PUBLIC "-//W3C//DTD SVG 1.1//EN" "http://www.w3.org/Graphics/SVG/1.1/DTD/svg11.dtd">
<svg version="1.1" id="Laag_1" xmlns="http://www.w3.org/2000/svg" xmlns:xlink="http://www.w3.org/1999/xlink" x="0px" y="0px"
	 viewBox="0 0 49.1 35.3" style="enable-background:new 0 0 49.1 35.3;" xml:space="preserve">
<style type="text/css">
	.st0{stroke:#222221;stroke-width:0.269;stroke-miterlimit:10;}
</style>
<g>
	<path class="st0" d="M7.1,23.2c-0.1-2.3,0-4.4-0.1-6.5c0-0.3-0.1-0.6-0.1-1c0-0.2-0.1-0.2-0.3-0.2c-0.4,0-0.8,0-1.1-0.3
		c-0.2-0.2-0.4-0.3-0.5-0.6c-0.1-0.4-0.2-0.7-0.2-1.1c0-1.1-0.1-2.1-0.1-3.2c0-0.6-0.1-0.6-0.7-0.6c-0.7,0-1.5-0.1-2.1-0.4
		C1.1,8.9,0.8,8.2,0.7,7.4C0.6,6.6,0.7,5.9,1,5.1C1.4,4.4,1.9,4,2.8,3.9c0.7-0.1,1.4-0.1,2,0c0.3,0,0.4-0.1,0.4-0.3
		c0-0.6,0-1.2-0.1-1.9c0-0.3,0.1-0.4,0.3-0.4c0.7-0.2,1.3,0,2,0.1c0.2,0,0.2,0.2,0.2,0.3c0.1,0.6,0,1.1,0,1.7c0,0.5,0,0.5,0.5,0.5
		c1.4,0,2.9,0.2,4.3,0.2c1.2,0,2.5,0.1,3.7,0c1.6-0.1,3.2-0.1,4.7-0.1c2,0,3.9,0,5.9-0.1C27,3.8,27,3.7,27,3.5c-0.1-0.7,0-1.4,0-2.1
		c0,0,0-0.1,0-0.1C27,1.1,27.3,1,27.8,1.1c0.2,0.1,0.5,0.1,0.4,0.4c-0.1,0.7-0.1,1.3,0,2c0,0.2,0.1,0.3,0.3,0.3c1.7,0,3.5,0,5.2,0
		c0.4,0,0.8,0,0.9,0.5c0,0.1,0.2,0.1,0.2,0.1c0.8,0,1.6,0,2.4,0c0.3,0,0.5,0.1,0.6,0.4c0.2,0.4,0.1,0.9,0.2,1.3
		c0,0.2,0.1,0.2,0.2,0.2c0.7,0,1.3,0,2,0c1.6,0,3.1,0,4.7,0.1c1,0.1,2.1,0.1,3.1,0c0.3,0,0.4,0.1,0.4,0.3c0.1,0.6-0.1,1.1-0.2,1.6
		c0,0.4-0.1,0.8-0.1,1.2c0,0.2-0.1,0.3-0.3,0.4c-0.4,0.1-0.9,0-1.3,0c-1.3,0-2.5,0-3.8-0.1c-1.5,0-3,0-4.4,0.1
		c-0.2,0-0.3,0.1-0.3,0.3c0,0.4,0,0.7,0,1.1c0,0.5-0.3,1-1,1c-0.7,0-1.4,0-2.1,0c-0.2,0-0.3,0.1-0.3,0.3c0.1,0.7,0,1.3-0.1,1.9
		c0,0.4-0.3,0.5-0.7,0.5c-0.4,0-0.7,0-1.1,0c-1,0.1-2,0-3,0c-1.4,0.1-2.7,0-4.1,0.1c-0.6,0-1.2,0-1.8,0c-0.2,0-0.3,0.1-0.4,0.3
		c-0.1,0.6,0,1.1-0.2,1.7c-0.5,1.8-1.3,2.5-3.2,2.9c-0.9,0.2-1.7,0.1-2.6,0.1c-1,0.1-2,0-3,0.1c-0.3,0-0.4,0.1-0.4,0.4
		c0,1.2,0,2.5,0,3.7c0,1.4,0.1,2.7-0.1,4.1c0,0.3,0,0.7-0.1,1c-0.1,0.6-0.5,0.9-1.1,1c-0.6,0.1-0.6,0.1-0.6,0.7c0,0.6,0,1.3,0,1.9
		c0,0.6-0.3,0.8-0.9,0.8c-0.7-0.1-1.4-0.1-2,0c-0.2,0-0.4,0-0.6,0c-0.2,0-0.3-0.2-0.3-0.4c0-0.2-0.1-0.5,0-0.7
		c0-0.6,0.1-1.3,0.1-1.9c0-0.3-0.1-0.4-0.4-0.5c-0.6-0.2-0.9-0.7-0.9-1.4c0-1.1,0.1-2.3,0.1-3.4C7.1,24.8,7.1,23.9,7.1,23.2z
		 M6.5,4.3c-1.1,0-2.3-0.1-3.4,0C2.5,4.3,2,4.4,1.7,4.9C1.4,5.3,1.2,5.7,1.2,6.2c0,0.4-0.1,0.7-0.1,1.1C1.1,8,1.7,8.8,2.4,9
		C3,9.2,3.6,9.3,4.3,9.3c0.6,0,0.8,0.2,0.9,0.8c0,0.1,0,0.2,0,0.2c0,1.2,0.1,2.3,0.2,3.5c0.1,0.7,0.2,1,1,1.1c0.3,0,0.5,0,0.8,0
		C7.7,15,8.3,15,8.9,15c1.3,0,2.5-0.1,3.8-0.1c1.8,0,3.6-0.1,5.5,0c2.1,0,4.2,0,6.4,0.1c1.4,0,2.8,0,4.3,0c0.7,0,1.4-0.1,2.2,0
		c1,0.1,2,0,3-0.1c0.1,0,0.2,0,0.2-0.2c0-0.5,0.1-1,0.1-1.6c0-0.3-0.1-0.4-0.4-0.4c-0.4,0-0.9-0.1-1.3-0.1c-3,0-6-0.1-9,0
		c-2.7,0.1-5.4,0-8.1,0.1c-1.4,0-2.7,0-4.1,0c-0.3,0-0.6,0-0.9-0.1C10.2,12.3,10,12,10,11.5c0-1.5,0-3,0-4.4c0-0.4,0.1-0.6,0.6-0.6
		c0.5,0,1.1,0,1.6,0c0.9,0,1.8-0.1,2.7-0.1c1.5,0,3,0,4.4,0c1.2,0,2.4,0,3.6,0c1.6,0,3.1,0,4.7,0.1c2.1,0,4.2,0.1,6.2,0.2
		c0.2,0,0.2,0,0.2-0.2c0-0.6,0-1.2,0.1-1.8c0-0.2-0.1-0.2-0.2-0.3c-0.5-0.2-1-0.1-1.5-0.1c-1.9,0-3.8,0-5.7,0
		c-1.7,0.1-3.3,0.1-5,0.1c-1.1,0-2.2,0-3.3,0c-1.1,0-2.1,0.1-3.2,0.2c-1.5,0-3,0-4.6-0.1C9.4,4.3,8,4.3,6.5,4.3z M13.9,17.2
		c0-0.6,0-1.2,0-1.7c0-0.2-0.1-0.3-0.2-0.3c-0.4,0-0.8,0-1.1,0c-1.7,0-3.3,0.2-5,0.1c-0.2,0-0.2,0.1-0.2,0.3
		c0.1,0.8,0.1,1.5,0.2,2.3c0,1.7,0,3.5,0.1,5.2c0,1.3,0,2.6,0,3.9c0,0.7-0.1,1.3-0.1,2c0,0.5,0.2,0.8,0.7,1c0.1,0,0.2,0.1,0.3,0.1
		c0.2,0.2,0.4,0.2,0.7,0.2c1.1,0,2.2,0.1,3.2-0.1c0.8-0.1,1.2-0.4,1.2-1.1c0-0.3,0-0.6,0.1-0.8c0.1-1.4,0.1-2.8,0.1-4.2
		c0-1,0-2.1,0-3.1C13.9,19.7,13.8,18.4,13.9,17.2z M34.2,10.9C34.2,10.9,34.2,10.9,34.2,10.9c0-0.4-0.1-0.7,0-1.1
		c0-0.2-0.1-0.3-0.3-0.3c-0.5,0-1.1-0.1-1.6-0.1c-2.4-0.1-4.8,0-7.2,0c-3.1,0.1-6.2,0.2-9.3,0.2c-1.5,0-3,0.1-4.5,0.1
		c-0.2,0-0.4,0-0.6,0c-0.1,0-0.2,0-0.2,0.2c0,0.6,0,1.1,0,1.7c0,0.1,0,0.3,0.2,0.3c0.3,0,0.5,0.1,0.8,0.1c1.7,0,3.4,0,5.2,0
		c1.4,0,2.9,0,4.3,0c2.4,0,4.9-0.1,7.3-0.1c2,0.1,4-0.1,5.9,0.2c0.2,0,0.2,0,0.2-0.2C34.2,11.7,34.2,11.3,34.2,10.9z M18.5,9.3
		c1.3,0,2.7-0.1,4-0.2c1.9,0,3.7-0.1,5.6-0.1c1.5,0,3-0.1,4.5,0c0.4,0,0.9,0.1,1.3,0.1c0.2,0,0.2,0,0.2-0.2c0-0.5,0-1,0-1.5
		c0-0.4,0-0.4-0.4-0.4c-1,0-2.1,0-3.1-0.1c-1.6-0.1-3.3-0.1-4.9-0.1c-1.3,0-2.6,0-4,0c-1,0-1.9,0-2.9,0c-0.6,0-1.2-0.1-1.9,0
		c-1.2,0.1-2.3,0-3.5,0.1c-0.9,0.1-1.8,0-2.7,0.1c-0.2,0-0.3,0.1-0.3,0.3c0,0.7,0,1.3,0,2c0,0.2,0,0.3,0.2,0.3c0.4,0,0.7,0,1.1,0
		c1.1-0.1,2.2-0.1,3.2-0.1C16.1,9.3,17.3,9.3,18.5,9.3z M42.9,9.6c0.5,0,1,0,1.6,0c1,0,2,0,3,0c0.2,0,0.3,0,0.3-0.3
		c0-0.3,0.1-0.6,0.1-0.9C47.9,8,48,7.5,48.1,7c0-0.2-0.1-0.3-0.3-0.3c-1.9,0.1-3.7-0.1-5.5-0.1c-1.4,0-2.7-0.1-4.1,0
		C38,6.7,38,6.8,38,6.9c0,0.8,0.1,1.6,0.1,2.4c0,0.3,0.1,0.3,0.3,0.3C39.9,9.5,41.4,9.5,42.9,9.6z M37.7,7.8c0-0.8-0.1-1.6-0.1-2.4
		c0-0.6-0.1-0.7-0.7-0.7c-0.6,0-1.2,0-1.8,0c-0.5,0-0.5,0-0.5,0.5c0,1.3-0.1,2.5,0,3.8c0.1,0.9,0,1.7,0,2.6c0,0.3,0.1,0.4,0.4,0.3
		c0.8-0.1,1.5,0.1,2.3-0.1c0.3-0.1,0.4-0.2,0.4-0.5C37.6,10.2,37.7,9,37.7,7.8z M18.7,15.2C18.7,15.2,18.7,15.2,18.7,15.2
		c-0.7,0-1.3,0-2,0c-0.2,0-0.3,0-0.1,0.2c0.3,0.5,0.5,1,0.8,1.5c0.1,0.2,0.1,0.4,0.1,0.5c0,0.3-0.3,0.5-0.6,0.4
		c-0.3-0.1-0.5-0.4-0.7-0.6c-0.4-0.6-0.9-1.2-1.2-1.8c-0.2-0.3-0.4-0.2-0.7-0.1c-0.2,0-0.1,0.2-0.1,0.3c0,0.8,0,1.6,0,2.4
		c0,0.8,0,0.8,0.8,0.8c0.6,0,1.1-0.2,1.7-0.2c0.9-0.1,1.7-0.1,2.6-0.3c0.6-0.2,1.1-0.4,1.3-1c0.2-0.5,0.3-1.1,0.3-1.6
		c0-0.3-0.1-0.4-0.4-0.4C20,15.2,19.4,15.2,18.7,15.2z M19,19.8c0.7,0,1.4-0.1,2.1-0.3c0.7-0.2,1.1-0.7,1.5-1.3
		c0.5-0.9,0.5-1.8,0.7-2.7c0-0.2-0.1-0.2-0.2-0.2c-0.3,0-0.5,0-0.8,0c-0.8,0-0.7,0-0.8,0.7c-0.1,1.3-0.5,2.1-1.8,2.5
		c-0.7,0.2-1.4,0.3-2,0.3c-0.9,0.1-1.9,0.3-2.8,0.3c-0.6,0-0.6-0.1-0.5,0.6c0,0.2,0.1,0.2,0.2,0.2C16,19.9,17.5,19.8,19,19.8z
		 M11.8,32.1C11.8,32.1,11.8,32.1,11.8,32.1c0-0.4,0-0.7,0-1.1c0-0.2-0.1-0.3-0.3-0.3c-0.2,0-0.4,0-0.6,0c-0.6,0-1.2,0-1.9,0
		c-0.2,0-0.3,0-0.3,0.2c-0.1,0.7,0,1.4-0.1,2.2c0,0.3,0.1,0.4,0.4,0.4c0.8-0.1,1.6-0.1,2.5,0c0.2,0,0.3-0.1,0.3-0.3
		C11.8,32.7,11.8,32.4,11.8,32.1z M7.2,2.5C7.2,2.5,7.1,2.5,7.2,2.5C7.1,2.3,7.2,2,7.1,1.8C7,1.6,6.7,1.7,6.5,1.6c0,0-0.1,0-0.2,0
		c-0.3-0.1-0.5,0-0.8,0c-0.1,0-0.2,0.1-0.1,0.2C5.5,2.4,5.5,3,5.5,3.6c0,0.2,0.1,0.2,0.3,0.2c0.4,0,0.8,0,1.2,0
		c0.2,0,0.2-0.1,0.2-0.2C7.2,3.3,7.2,2.9,7.2,2.5z M15.7,15.2c-0.1,0-0.3-0.1-0.3,0c0,0.1,0.1,0.2,0.1,0.3c0.4,0.6,0.8,1.2,1.3,1.7
		c0.1,0.1,0.1,0.2,0.2,0.1c0.1-0.1,0-0.2,0-0.2c-0.2-0.6-0.5-1.2-0.9-1.7C16.1,15.2,15.9,15.1,15.7,15.2z M27.8,2.5
		C27.8,2.5,27.7,2.5,27.8,2.5c0-0.3,0-0.5,0-0.8c0-0.2-0.1-0.2-0.3-0.2c-0.2,0-0.2,0.1-0.2,0.2c0,0.6,0,1.3,0.1,1.9
		c0,0.2,0.1,0.2,0.3,0.2c0.2,0,0.2-0.1,0.2-0.3C27.8,3.2,27.8,2.9,27.8,2.5z"/>
	<path class="st0" d="M4.3,7.7C4.3,8,4,8.3,3.6,8.3c-0.4,0-0.8-0.4-0.8-0.7c0-0.4,0.3-0.7,0.9-0.7C4,6.9,4.3,7.3,4.3,7.7z M3.5,7.9
		c0.2,0,0.4-0.1,0.4-0.3c0-0.2-0.1-0.3-0.3-0.3c-0.2,0-0.4,0-0.4,0.3C3.2,7.8,3.4,7.8,3.5,7.9z"/>
</g>
</svg>
